Path for 170102010101 changed from 60 to 134
Path for 170102010102 changed from 59 to 133
Path for 170102010201 changed from 60 to 133
Path for 170102010202 changed from 59 to 133
Path for 170102010203 changed from 59 to 133
Path for 170102010103 changed from 58 to 132
Path for 170102010204 changed from 58 to 132
Path for 170102010301 changed from 59 to 132
Path for 170102010302 changed from 58 to 132
Path for 170102010303 changed from 58 to 132
Path for 170102010205 changed from 57 to 131
Path for 170102010206 changed from 57 to 131
Path for 170102010207 changed from 57 to 131
Path for 170102010304 changed from 57 to 131
Path for 170102010208 changed from 57 to 130
Path for 170102010209 changed from 56 to 130
Path for 170102010305 changed from 56 to 130
Path for 170102010402 changed from 56 to 130
Path for 170102050105 changed from 56 to 130
Path for 170102050401 changed from 56 to 130
Path for 170102010401 changed from 55 to 129
Path for 170102010403 changed from 55 to 129
Path for 170102010404 changed from 55 to 129
Path for 170102010405 changed from 55 to 129
Path for 170102050101 changed from 56 to 129
Path for 170102050102 changed from 55 to 129
Path for 170102050103 changed from 55 to 129
Path for 170102050104 changed from 55 to 129
Path for 170102050106 changed from 55 to 129
Path for 170102050107 changed from 55 to 129
Path for 170102050402 changed from 56 to 129
Path for 170102050403 changed from 55 to 129
Path for 170102050404 changed from 55 to 129
Path for 170102010406 changed from 55 to 128
Path for 170102010407 changed from 54 to 128
Path for 170102010701 changed from 54 to 128
Path for 170102020101 changed from 55 to 128
Path for 170102020102 changed from 55 to 128
Path for 170102050108 changed from 54 to 128
Path for 170102050201 changed from 54 to 128
Path for 170102050202 changed from 54 to 128
Path for 170102050203 changed from 54 to 128
Path for 170102050405 changed from 54 to 128
Path for 170102050501 changed from 54 to 128
Path for 170102010501 changed from 55 to 127
Path for 170102010502 changed from 54 to 127
Path for 170102010503 changed from 54 to 127
Path for 170102010504 changed from 54 to 127
Path for 170102010505 changed from 55 to 127
Path for 170102010702 changed from 53 to 127
Path for 170102020103 changed from 54 to 127
Path for 170102020104 changed from 54 to 127
Path for 170102021001 changed from 53 to 127
Path for 170102030101 changed from 55 to 127
Path for 170102030203 changed from 54 to 127
Path for 170102050204 changed from 53 to 127
Path for 170102050301 changed from 53 to 127
Path for 170102050302 changed from 53 to 127
Path for 170102050303 changed from 53 to 127
Path for 170102050304 changed from 53 to 127
Path for 170102050502 changed from 54 to 127
Path for 170102050503 changed from 53 to 127
Path for 170102050504 changed from 53 to 127
Path for 170102050505 changed from 53 to 127
Path for 170102090101 changed from 57 to 127
Path for 170102090102 changed from 57 to 127
Path for 170102090103 changed from 57 to 127
Path for 170102090104 changed from 59 to 127
Path for 170102090105 changed from 58 to 127
Path for 170102090201 changed from 57 to 127
Path for 170102010506 changed from 54 to 126
Path for 170102010507 changed from 53 to 126
Path for 170102010601 changed from 53 to 126
Path for 170102010606 changed from 54 to 126
Path for 170102010607 changed from 53 to 126
Path for 170102010703 changed from 52 to 126
Path for 170102010704 changed from 52 to 126
Path for 170102010705 changed from 52 to 126
Path for 170102010706 changed from 52 to 126
Path for 170102020105 changed from 53 to 126
Path for 170102020201 changed from 53 to 126
Path for 170102020801 changed from 53 to 126
Path for 170102020802 changed from 52 to 126
Path for 170102020803 changed from 52 to 126
Path for 170102020901 changed from 52 to 126
Path for 170102021002 changed from 52 to 126
Path for 170102021101 changed from 52 to 126
Path for 170102030102 changed from 54 to 126
Path for 170102030103 changed from 54 to 126
Path for 170102030201 changed from 54 to 126
Path for 170102030202 changed from 53 to 126
Path for 170102030204 changed from 53 to 126
Path for 170102030205 changed from 53 to 126
Path for 170102030303 changed from 53 to 126
Path for 170102030401 changed from 53 to 126
Path for 170102030402 changed from 53 to 126
Path for 170102030403 changed from 53 to 126
Path for 170102030404 changed from 53 to 126
Path for 170102030405 changed from 53 to 126
Path for 170102030501 changed from 53 to 126
Path for 170102030502 changed from 53 to 126
Path for 170102030601 changed from 53 to 126
Path for 170102030602 changed from 53 to 126
Path for 170102050305 changed from 52 to 126
Path for 170102050506 changed from 52 to 126
Path for 170102050701 changed from 53 to 126
Path for 170102050702 changed from 52 to 126
Path for 170102050801 changed from 52 to 126
Path for 170102090106 changed from 57 to 126
Path for 170102090107 changed from 56 to 126
Path for 170102090202 changed from 56 to 126
Path for 170102090207 changed from 57 to 126
Path for 170102010602 changed from 53 to 125
Path for 170102010603 changed from 52 to 125
Path for 170102010604 changed from 52 to 125
Path for 170102010605 changed from 52 to 125
Path for 170102010608 changed from 52 to 125
Path for 170102010609 changed from 53 to 125
Path for 170102010610 changed from 52 to 125
Path for 170102010707 changed from 51 to 125
Path for 170102010805 changed from 51 to 125
Path for 170102020202 changed from 52 to 125
Path for 170102020203 changed from 52 to 125
Path for 170102020301 changed from 52 to 125
Path for 170102020302 changed from 52 to 125
Path for 170102020701 changed from 51 to 125
Path for 170102020702 changed from 51 to 125
Path for 170102020804 changed from 51 to 125
Path for 170102020902 changed from 51 to 125
Path for 170102021003 changed from 51 to 125
Path for 170102021102 changed from 51 to 125
Path for 170102030104 changed from 53 to 125
Path for 170102030206 changed from 52 to 125
Path for 170102030302 changed from 53 to 125
Path for 170102030304 changed from 52 to 125
Path for 170102030305 changed from 52 to 125
Path for 170102030306 changed from 52 to 125
Path for 170102030308 changed from 52 to 125
Path for 170102030406 changed from 52 to 125
Path for 170102030409 changed from 52 to 125
Path for 170102030410 changed from 52 to 125
Path for 170102030411 changed from 52 to 125
Path for 170102030412 changed from 52 to 125
Path for 170102030503 changed from 52 to 125
Path for 170102030603 changed from 52 to 125
Path for 170102050601 changed from 51 to 125
Path for 170102050703 changed from 51 to 125
Path for 170102050704 changed from 51 to 125
Path for 170102050802 changed from 51 to 125
Path for 170102050803 changed from 51 to 125
Path for 170102050804 changed from 51 to 125
Path for 170102050901 changed from 51 to 125
Path for 170102050902 changed from 51 to 125
Path for 170102090203 changed from 56 to 125
Path for 170102090204 changed from 55 to 125
Path for 170102090205 changed from 55 to 125
Path for 170102090208 changed from 56 to 125
Path for 170102090209 changed from 56 to 125
Path for 170102090301 changed from 55 to 125
Path for 170102010611 changed from 51 to 124
Path for 170102010708 changed from 50 to 124
Path for 170102010801 changed from 50 to 124
Path for 170102010802 changed from 50 to 124
Path for 170102010803 changed from 50 to 124
Path for 170102010804 changed from 50 to 124
Path for 170102010806 changed from 50 to 124
Path for 170102020204 changed from 51 to 124
Path for 170102020303 changed from 51 to 124
Path for 170102020401 changed from 50 to 124
Path for 170102020501 changed from 51 to 124
Path for 170102020703 changed from 50 to 124
Path for 170102020805 changed from 50 to 124
Path for 170102020903 changed from 50 to 124
Path for 170102021004 changed from 50 to 124
Path for 170102021103 changed from 50 to 124
Path for 170102021201 changed from 50 to 124
Path for 170102030301 changed from 51 to 124
Path for 170102030307 changed from 51 to 124
Path for 170102030309 changed from 51 to 124
Path for 170102030407 changed from 51 to 124
Path for 170102030408 changed from 51 to 124
Path for 170102030413 changed from 51 to 124
Path for 170102030414 changed from 51 to 124
Path for 170102030604 changed from 51 to 124
Path for 170102030701 changed from 51 to 124
Path for 170102030704 changed from 51 to 124
Path for 170102031201 changed from 49 to 124
Path for 170102050602 changed from 50 to 124
Path for 170102050705 changed from 50 to 124
Path for 170102050805 changed from 51 to 124
Path for 170102050806 changed from 50 to 124
Path for 170102050903 changed from 50 to 124
Path for 170102090206 changed from 54 to 124
Path for 170102090210 changed from 55 to 124
Path for 170102090302 changed from 54 to 124
Path for 170102090303 changed from 54 to 124
Path for 170102010807 changed from 49 to 123
Path for 170102010808 changed from 48 to 123
Path for 170102020402 changed from 49 to 123
Path for 170102020403 changed from 49 to 123
Path for 170102020404 changed from 49 to 123
Path for 170102020502 changed from 50 to 123
Path for 170102020503 changed from 50 to 123
Path for 170102021104 changed from 49 to 123
Path for 170102021202 changed from 49 to 123
Path for 170102030310 changed from 50 to 123
Path for 170102030415 changed from 50 to 123
Path for 170102030702 changed from 50 to 123
Path for 170102030703 changed from 50 to 123
Path for 170102030705 changed from 50 to 123
Path for 170102030901 changed from 50 to 123
Path for 170102031001 changed from 49 to 123
Path for 170102031002 changed from 49 to 123
Path for 170102031202 changed from 48 to 123
Path for 170102031203 changed from 48 to 123
Path for 170102050807 changed from 49 to 123
Path for 170102050904 changed from 49 to 123
Path for 170102051001 changed from 49 to 123
Path for 170102051002 changed from 49 to 123
Path for 170102070101 changed from 52 to 123
Path for 170102070102 changed from 51 to 123
Path for 170102070103 changed from 51 to 123
Path for 170102070104 changed from 51 to 123
Path for 170102070106 changed from 51 to 123
Path for 170102090304 changed from 53 to 123
Path for 170102090305 changed from 53 to 123
Path for 170102090401 changed from 52 to 123
Path for 170102010809 changed from 48 to 122
Path for 170102020405 changed from 48 to 122
Path for 170102020504 changed from 49 to 122
Path for 170102020505 changed from 48 to 122
Path for 170102021203 changed from 48 to 122
Path for 170102021204 changed from 48 to 122
Path for 170102030706 changed from 49 to 122
Path for 170102030801 changed from 49 to 122
Path for 170102030802 changed from 49 to 122
Path for 170102030803 changed from 49 to 122
Path for 170102030902 changed from 50 to 122
Path for 170102030903 changed from 49 to 122
Path for 170102030904 changed from 49 to 122
Path for 170102031003 changed from 48 to 122
Path for 170102031004 changed from 48 to 122
Path for 170102031005 changed from 48 to 122
Path for 170102031006 changed from 48 to 122
Path for 170102031204 changed from 47 to 122
Path for 170102051003 changed from 48 to 122
Path for 170102051005 changed from 48 to 122
Path for 170102070105 changed from 52 to 122
Path for 170102070107 changed from 50 to 122
Path for 170102070201 changed from 50 to 122
Path for 170102090306 changed from 52 to 122
Path for 170102090402 changed from 51 to 122
Path for 170102090501 changed from 52 to 122
Path for 170102090502 changed from 53 to 122
Path for 170102090503 changed from 52 to 122
Path for 170102010810 changed from 47 to 121
Path for 170102020506 changed from 47 to 121
Path for 170102020601 changed from 47 to 121
Path for 170102021205 changed from 47 to 121
Path for 170102021206 changed from 47 to 121
Path for 170102021207 changed from 47 to 121
Path for 170102030804 changed from 48 to 121
Path for 170102030905 changed from 48 to 121
Path for 170102030908 changed from 48 to 121
Path for 170102031007 changed from 47 to 121
Path for 170102051004 changed from 48 to 121
Path for 170102051006 changed from 48 to 121
Path for 170102051007 changed from 47 to 121
Path for 170102051101 changed from 48 to 121
Path for 170102070202 changed from 49 to 121
Path for 170102070203 changed from 49 to 121
Path for 170102070204 changed from 49 to 121
Path for 170102070205 changed from 49 to 121
Path for 170102090403 changed from 50 to 121
Path for 170102090404 changed from 50 to 121
Path for 170102090405 changed from 50 to 121
Path for 170102090504 changed from 51 to 121
Path for 170102090506 changed from 49 to 121
Path for 170102020602 changed from 46 to 120
Path for 170102020603 changed from 46 to 120
Path for 170102020604 changed from 46 to 120
Path for 170102020606 changed from 47 to 120
Path for 170102020607 changed from 46 to 120
Path for 170102021208 changed from 46 to 120
Path for 170102021209 changed from 46 to 120
Path for 170102030906 changed from 48 to 120
Path for 170102030907 changed from 47 to 120
Path for 170102030909 changed from 47 to 120
Path for 170102031008 changed from 46 to 120
Path for 170102031101 changed from 45 to 120
Path for 170102051102 changed from 47 to 120
Path for 170102051103 changed from 47 to 120
Path for 170102051104 changed from 47 to 120
Path for 170102051105 changed from 46 to 120
Path for 170102051201 changed from 46 to 120
Path for 170102051202 changed from 46 to 120
Path for 170102051303 changed from 46 to 120
Path for 170102070206 changed from 48 to 120
Path for 170102090406 changed from 49 to 120
Path for 170102090505 changed from 50 to 120
Path for 170102090507 changed from 49 to 120
Path for 170102020605 changed from 45 to 119
Path for 170102020608 changed from 45 to 119
Path for 170102020609 changed from 45 to 119
Path for 170102020610 changed from 45 to 119
Path for 170102020611 changed from 45 to 119
Path for 170102021210 changed from 45 to 119
Path for 170102021301 changed from 45 to 119
Path for 170102021302 changed from 45 to 119
Path for 170102030910 changed from 46 to 119
Path for 170102031102 changed from 45 to 119
Path for 170102031104 changed from 45 to 119
Path for 170102051203 changed from 45 to 119
Path for 170102051301 changed from 45 to 119
Path for 170102051302 changed from 45 to 119
Path for 170102051304 changed from 45 to 119
Path for 170102051401 changed from 45 to 119
Path for 170102051402 changed from 45 to 119
Path for 170102051403 changed from 45 to 119
Path for 170102051502 changed from 45 to 119
Path for 170102070207 changed from 47 to 119
Path for 170102070301 changed from 47 to 119
Path for 170102090508 changed from 49 to 119
Path for 170102090509 changed from 48 to 119
Path for 170102090601 changed from 47 to 119
Path for 170102020612 changed from 45 to 118
Path for 170102020613 changed from 44 to 118
Path for 170102021303 changed from 44 to 118
Path for 170102021304 changed from 44 to 118
Path for 170102021306 changed from 44 to 118
Path for 170102021401 changed from 44 to 118
Path for 170102031103 changed from 44 to 118
Path for 170102031105 changed from 44 to 118
Path for 170102031106 changed from 44 to 118
Path for 170102031301 changed from 44 to 118
Path for 170102031302 changed from 44 to 118
Path for 170102031304 changed from 44 to 118
Path for 170102031305 changed from 44 to 118
Path for 170102051305 changed from 44 to 118
Path for 170102051404 changed from 45 to 118
Path for 170102051405 changed from 44 to 118
Path for 170102051406 changed from 45 to 118
Path for 170102051501 changed from 44 to 118
Path for 170102051503 changed from 44 to 118
Path for 170102051504 changed from 44 to 118
Path for 170102051505 changed from 44 to 118
Path for 170102070302 changed from 46 to 118
Path for 170102070303 changed from 46 to 118
Path for 170102070304 changed from 46 to 118
Path for 170102090602 changed from 47 to 118
Path for 170102090603 changed from 46 to 118
Path for 170102090604 changed from 46 to 118
Path for 170102021305 changed from 43 to 117
Path for 170102021402 changed from 43 to 117
Path for 170102021403 changed from 43 to 117
Path for 170102031107 changed from 43 to 117
Path for 170102031303 changed from 43 to 117
Path for 170102031306 changed from 43 to 117
Path for 170102051407 changed from 44 to 117
Path for 170102051408 changed from 43 to 117
Path for 170102051506 changed from 43 to 117
Path for 170102051507 changed from 43 to 117
Path for 170102060101 changed from 47 to 117
Path for 170102060201 changed from 45 to 117
Path for 170102060204 changed from 47 to 117
Path for 170102060205 changed from 46 to 117
Path for 170102070305 changed from 45 to 117
Path for 170102070401 changed from 45 to 117
Path for 170102090605 changed from 45 to 117
Path for 170102090606 changed from 45 to 117
Path for 170102100301 changed from 44 to 117
Path for 170102110101 changed from 46 to 117
Path for 170102110102 changed from 45 to 117
Path for 170102110103 changed from 45 to 117
Path for 170102110104 changed from 46 to 117
Path for 170102021404 changed from 42 to 116
Path for 170102031307 changed from 42 to 116
Path for 170102040101 changed from 42 to 116
Path for 170102040301 changed from 42 to 116
Path for 170102051409 changed from 42 to 116
Path for 170102051508 changed from 42 to 116
Path for 170102051601 changed from 42 to 116
Path for 170102060102 changed from 46 to 116
Path for 170102060103 changed from 45 to 116
Path for 170102060202 changed from 45 to 116
Path for 170102060203 changed from 45 to 116
Path for 170102060206 changed from 45 to 116
Path for 170102060207 changed from 45 to 116
Path for 170102060208 changed from 45 to 116
Path for 170102060209 changed from 45 to 116
Path for 170102060210 changed from 45 to 116
Path for 170102060211 changed from 45 to 116
Path for 170102060301 changed from 45 to 116
Path for 170102060304 changed from 45 to 116
Path for 170102060305 changed from 45 to 116
Path for 170102060306 changed from 45 to 116
Path for 170102070306 changed from 45 to 116
Path for 170102070307 changed from 44 to 116
Path for 170102070402 changed from 44 to 116
Path for 170102070501 changed from 45 to 116
Path for 170102090607 changed from 44 to 116
Path for 170102100201 changed from 44 to 116
Path for 170102100302 changed from 44 to 116
Path for 170102100303 changed from 44 to 116
Path for 170102100501 changed from 45 to 116
Path for 170102100502 changed from 44 to 116
Path for 170102110105 changed from 45 to 116
Path for 170102110106 changed from 44 to 116
Path for 170102110201 changed from 44 to 116
Path for 170102110202 changed from 44 to 116
Path for 170102110203 changed from 44 to 116
Path for 170102021405 changed from 41 to 115
Path for 170102031308 changed from 41 to 115
Path for 170102040102 changed from 41 to 115
Path for 170102040103 changed from 41 to 115
Path for 170102040302 changed from 41 to 115
Path for 170102051602 changed from 42 to 115
Path for 170102051603 changed from 41 to 115
Path for 170102060212 changed from 44 to 115
Path for 170102060302 changed from 44 to 115
Path for 170102060303 changed from 44 to 115
Path for 170102060307 changed from 44 to 115
Path for 170102060308 changed from 44 to 115
Path for 170102060401 changed from 44 to 115
Path for 170102060403 changed from 45 to 115
Path for 170102060404 changed from 44 to 115
Path for 170102070403 changed from 44 to 115
Path for 170102070404 changed from 44 to 115
Path for 170102070502 changed from 44 to 115
Path for 170102070503 changed from 44 to 115
Path for 170102090701 changed from 43 to 115
Path for 170102090702 changed from 43 to 115
Path for 170102090704 changed from 43 to 115
Path for 170102100101 changed from 44 to 115
Path for 170102100102 changed from 44 to 115
Path for 170102100202 changed from 44 to 115
Path for 170102100203 changed from 43 to 115
Path for 170102100304 changed from 43 to 115
Path for 170102100305 changed from 43 to 115
Path for 170102100503 changed from 43 to 115
Path for 170102110204 changed from 44 to 115
Path for 170102110205 changed from 43 to 115
Path for 170102040104 changed from 40 to 114
Path for 170102040201 changed from 40 to 114
Path for 170102040203 changed from 40 to 114
Path for 170102040303 changed from 40 to 114
Path for 170102040401 changed from 40 to 114
Path for 170102040402 changed from 40 to 114
Path for 170102060309 changed from 43 to 114
Path for 170102060402 changed from 43 to 114
Path for 170102060405 changed from 43 to 114
Path for 170102060406 changed from 43 to 114
Path for 170102070405 changed from 43 to 114
Path for 170102070504 changed from 43 to 114
Path for 170102080201 changed from 42 to 114
Path for 170102090703 changed from 43 to 114
Path for 170102090705 changed from 43 to 114
Path for 170102100103 changed from 43 to 114
Path for 170102100104 changed from 43 to 114
Path for 170102100105 changed from 42 to 114
Path for 170102100106 changed from 42 to 114
Path for 170102100204 changed from 42 to 114
Path for 170102100306 changed from 42 to 114
Path for 170102100307 changed from 42 to 114
Path for 170102100504 changed from 42 to 114
Path for 170102100505 changed from 42 to 114
Path for 170102110206 changed from 43 to 114
Path for 170102110207 changed from 42 to 114
Path for 170102040204 changed from 40 to 113
Path for 170102040205 changed from 39 to 113
Path for 170102040206 changed from 39 to 113
Path for 170102040207 changed from 39 to 113
Path for 170102040208 changed from 39 to 113
Path for 170102040209 changed from 39 to 113
Path for 170102040304 changed from 39 to 113
Path for 170102040403 changed from 39 to 113
Path for 170102040404 changed from 39 to 113
Path for 170102060407 changed from 42 to 113
Path for 170102070505 changed from 42 to 113
Path for 170102080202 changed from 41 to 113
Path for 170102080203 changed from 41 to 113
Path for 170102080204 changed from 41 to 113
Path for 170102090706 changed from 42 to 113
Path for 170102100107 changed from 41 to 113
Path for 170102100308 changed from 41 to 113
Path for 170102100506 changed from 41 to 113
Path for 170102100507 changed from 41 to 113
Path for 170102110301 changed from 42 to 113
Path for 170102110302 changed from 41 to 113
Path for 170102110303 changed from 41 to 113
Path for 170102110304 changed from 41 to 113
Path for 170102110305 changed from 41 to 113
Path for 170102110306 changed from 41 to 113
Path for 170102040210 changed from 38 to 112
Path for 170102040305 changed from 38 to 112
Path for 170102040405 changed from 38 to 112
Path for 170102040501 changed from 40 to 112
Path for 170102040502 changed from 39 to 112
Path for 170102040503 changed from 39 to 112
Path for 170102040504 changed from 41 to 112
Path for 170102040505 changed from 40 to 112
Path for 170102080101 changed from 41 to 112
Path for 170102080102 changed from 41 to 112
Path for 170102080205 changed from 40 to 112
Path for 170102080206 changed from 40 to 112
Path for 170102080207 changed from 40 to 112
Path for 170102090707 changed from 41 to 112
Path for 170102100401 changed from 40 to 112
Path for 170102100402 changed from 40 to 112
Path for 170102100508 changed from 40 to 112
Path for 170102110307 changed from 40 to 112
Path for 170102120201 changed from 40 to 112
Path for 170102040506 changed from 39 to 111
Path for 170102040507 changed from 38 to 111
Path for 170102040601 changed from 37 to 111
Path for 170102080103 changed from 40 to 111
Path for 170102080104 changed from 39 to 111
Path for 170102080107 changed from 39 to 111
Path for 170102080208 changed from 39 to 111
Path for 170102100403 changed from 39 to 111
Path for 170102100509 changed from 39 to 111
Path for 170102110308 changed from 39 to 111
Path for 170102120101 changed from 40 to 111
Path for 170102120202 changed from 39 to 111
Path for 170102040508 changed from 37 to 110
Path for 170102040602 changed from 36 to 110
Path for 170102080105 changed from 38 to 110
Path for 170102080106 changed from 38 to 110
Path for 170102080304 changed from 38 to 110
Path for 170102110401 changed from 38 to 110
Path for 170102120102 changed from 39 to 110
Path for 170102120103 changed from 39 to 110
Path for 170102120104 changed from 38 to 110
Path for 170102120105 changed from 38 to 110
Path for 170102120203 changed from 38 to 110
Path for 170102040603 changed from 35 to 109
Path for 170102040604 changed from 35 to 109
Path for 170102040605 changed from 35 to 109
Path for 170102080108 changed from 37 to 109
Path for 170102080302 changed from 37 to 109
Path for 170102080305 changed from 37 to 109
Path for 170102110402 changed from 37 to 109
Path for 170102120106 changed from 37 to 109
Path for 170102120204 changed from 37 to 109
Path for 170102120401 changed from 37 to 109
Path for 170102120402 changed from 37 to 109
Path for 170102120403 changed from 37 to 109
Path for 170102120404 changed from 37 to 109
Path for 170102120405 changed from 37 to 109
Path for 170102040606 changed from 34 to 108
Path for 170102040607 changed from 35 to 108
Path for 170102040610 changed from 34 to 108
Path for 170102080501 changed from 36 to 108
Path for 170102120302 changed from 36 to 108
Path for 170102120406 changed from 36 to 108
Path for 170102120701 changed from 35 to 108
Path for 170102120704 changed from 35 to 108
Path for 170102040608 changed from 34 to 107
Path for 170102040609 changed from 33 to 107
Path for 170102040611 changed from 33 to 107
Path for 170102040801 changed from 33 to 107
Path for 170102040802 changed from 33 to 107
Path for 170102040805 changed from 32 to 107
Path for 170102120301 changed from 35 to 107
Path for 170102120303 changed from 35 to 107
Path for 170102120304 changed from 35 to 107
Path for 170102120407 changed from 35 to 107
Path for 170102120603 changed from 35 to 107
Path for 170102120702 changed from 35 to 107
Path for 170102120703 changed from 34 to 107
Path for 170102120705 changed from 34 to 107
Path for 170102120706 changed from 34 to 107
Path for 170102040612 changed from 32 to 106
Path for 170102040803 changed from 32 to 106
Path for 170102040804 changed from 32 to 106
Path for 170102040806 changed from 32 to 106
Path for 170102120305 changed from 34 to 106
Path for 170102120408 changed from 34 to 106
Path for 170102120501 changed from 35 to 106
Path for 170102120502 changed from 35 to 106
Path for 170102120504 changed from 34 to 106
Path for 170102120601 changed from 35 to 106
Path for 170102120602 changed from 35 to 106
Path for 170102120707 changed from 33 to 106
Path for 170102120708 changed from 33 to 106
Path for 170102040701 changed from 31 to 105
Path for 170102040702 changed from 31 to 105
Path for 170102040807 changed from 31 to 105
Path for 170102040808 changed from 31 to 105
Path for 170102040809 changed from 31 to 105
Path for 170102040810 changed from 31 to 105
Path for 170102040811 changed from 31 to 105
Path for 170102120503 changed from 34 to 105
Path for 170102120505 changed from 33 to 105
Path for 170102120506 changed from 33 to 105
Path for 170102120604 changed from 34 to 105
Path for 170102120605 changed from 33 to 105
Path for 170102120709 changed from 32 to 105
Path for 170102120804 changed from 32 to 105
Path for 170102120806 changed from 30 to 105
Path for 170102040703 changed from 30 to 104
Path for 170102040812 changed from 30 to 104
Path for 170102120507 changed from 32 to 104
Path for 170102120606 changed from 32 to 104
Path for 170102120607 changed from 31 to 104
Path for 170102120710 changed from 31 to 104
Path for 170102120801 changed from 31 to 104
Path for 170102120805 changed from 31 to 104
Path for 170102130101 changed from 30 to 104
Path for 170102040704 changed from 29 to 103
Path for 170102040705 changed from 29 to 103
Path for 170102120802 changed from 30 to 103
Path for 170102120803 changed from 29 to 103
Path for 170102120807 changed from 29 to 103
Path for 170102130102 changed from 29 to 103
Path for 170102130103 changed from 29 to 103
Path for 170102130104 changed from 29 to 103
Path for 170102130301 changed from 29 to 103
Path for 170102130302 changed from 29 to 103
Path for 170102130401 changed from 29 to 103
Path for 170102040706 changed from 28 to 102
Path for 170102120808 changed from 29 to 102
Path for 170102120809 changed from 28 to 102
Path for 170102130105 changed from 28 to 102
Path for 170102130201 changed from 28 to 102
Path for 170102130202 changed from 28 to 102
Path for 170102130203 changed from 28 to 102
Path for 170102130204 changed from 28 to 102
Path for 170102130303 changed from 28 to 102
Path for 170102130304 changed from 28 to 102
Path for 170102130402 changed from 28 to 102
Path for 170102130403 changed from 28 to 102
Path for 170102040707 changed from 27 to 101
Path for 170102120810 changed from 27 to 101
Path for 170102130205 changed from 27 to 101
Path for 170102130305 changed from 27 to 101
Path for 170102130404 changed from 27 to 101
Path for 170102130501 changed from 27 to 101
Path for 170102130502 changed from 27 to 101
Path for 170102130507 changed from 27 to 101
Path for 170102130405 changed from 27 to 100
Path for 170102130406 changed from 26 to 100
Path for 170102130503 changed from 26 to 100
Path for 170102130504 changed from 26 to 100
Path for 170102130505 changed from 26 to 100
Path for 170102130506 changed from 26 to 100
Path for 170102130508 changed from 26 to 100
Path for 170102130509 changed from 26 to 100
Path for 170102130407 changed from 25 to 99
Path for 170102130510 changed from 25 to 99
Path for 170102130511 changed from 25 to 99
Path for 170102130512 changed from 24 to 98
Path for 170102130513 changed from 24 to 98
Path for 170102130601 changed from 25 to 98
Path for 170102130602 changed from 24 to 98
Path for 170102130603 changed from 24 to 98
Path for 170102130604 changed from 24 to 98
Path for 170102130605 changed from 24 to 98
Path for 170102130606 changed from 24 to 98
Path for 170102130514 changed from 23 to 97
Path for 170102130607 changed from 23 to 97
Path for 170102130701 changed from 21 to 96
Path for 170102130702 changed from 21 to 96
Path for 170102130703 changed from 21 to 96
Path for 170102130801 changed from 22 to 96
Path for 170102130901 changed from 23 to 96
Path for 170102130902 changed from 22 to 96
Path for 170102130903 changed from 22 to 96
Path for 170101010201 changed from 19 to 95
Path for 170101010202 changed from 19 to 95
Path for 170101010203 changed from 19 to 95
Path for 170102130704 changed from 20 to 95
Path for 170102130802 changed from 21 to 95
Path for 170102130904 changed from 21 to 95
Path for 170101010204 changed from 18 to 94
Path for 170101010205 changed from 18 to 94
Path for 170101010206 changed from 18 to 94
Path for 170101010301 changed from 18 to 94
Path for 170101020101 changed from 18 to 94
Path for 170101020102 changed from 18 to 94
Path for 170102130803 changed from 20 to 94
Path for 170102130905 changed from 20 to 94
Path for 170102131001 changed from 20 to 94
Path for 170101010207 changed from 17 to 93
Path for 170101010302 changed from 17 to 93
Path for 170101010303 changed from 17 to 93
Path for 170101010304 changed from 17 to 93
Path for 170101010305 changed from 17 to 93
Path for 170101010402 changed from 17 to 93
Path for 170101010501 changed from 17 to 93
Path for 170101020103 changed from 17 to 93
Path for 170101020104 changed from 17 to 93
Path for 170101020106 changed from 17 to 93
Path for 170102131002 changed from 19 to 93
Path for 170102131003 changed from 19 to 93
Path for 170102131004 changed from 19 to 93
Path for 170102131005 changed from 19 to 93
Path for 170102131101 changed from 20 to 93
Path for 170101010306 changed from 16 to 92
Path for 170101010403 changed from 16 to 92
Path for 170101010404 changed from 16 to 92
Path for 170101010405 changed from 16 to 92
Path for 170101010406 changed from 16 to 92
Path for 170101010407 changed from 17 to 92
Path for 170101010502 changed from 16 to 92
Path for 170101020105 changed from 16 to 92
Path for 170101020107 changed from 16 to 92
Path for 170101020201 changed from 16 to 92
Path for 170101020301 changed from 16 to 92
Path for 170102131006 changed from 18 to 92
Path for 170102131102 changed from 19 to 92
Path for 170102131103 changed from 18 to 92
Path for 170102131301 changed from 18 to 92
Path for 170102131302 changed from 18 to 92
Path for 170102131304 changed from 18 to 92
Path for 170102150102 changed from 19 to 92
Path for 170102150103 changed from 19 to 92
Path for 170101010408 changed from 16 to 91
Path for 170101010409 changed from 15 to 91
Path for 170101010503 changed from 15 to 91
Path for 170101010601 changed from 15 to 91
Path for 170101010602 changed from 15 to 91
Path for 170101010603 changed from 15 to 91
Path for 170101020108 changed from 15 to 91
Path for 170101020202 changed from 15 to 91
Path for 170101020302 changed from 15 to 91
Path for 170101020303 changed from 15 to 91
Path for 170101020401 changed from 15 to 91
Path for 170102131104 changed from 17 to 91
Path for 170102131201 changed from 17 to 91
Path for 170102131303 changed from 17 to 91
Path for 170102131305 changed from 17 to 91
Path for 170102140101 changed from 17 to 91
Path for 170102150104 changed from 18 to 91
Path for 170102150105 changed from 17 to 91
Path for 170102150106 changed from 17 to 91
Path for 170102150107 changed from 17 to 91
Path for 170102150201 changed from 17 to 91
Path for 170102150202 changed from 17 to 91
Path for 170101010604 changed from 14 to 90
Path for 170101010605 changed from 14 to 90
Path for 170101010606 changed from 14 to 90
Path for 170101020304 changed from 14 to 90
Path for 170101020305 changed from 14 to 90
Path for 170101020402 changed from 14 to 90
Path for 170101020403 changed from 14 to 90
Path for 170101020404 changed from 14 to 90
Path for 170101030102 changed from 15 to 90
Path for 170102131202 changed from 16 to 90
Path for 170102131203 changed from 16 to 90
Path for 170102131306 changed from 16 to 90
Path for 170102131307 changed from 16 to 90
Path for 170102131308 changed from 16 to 90
Path for 170102140102 changed from 16 to 90
Path for 170102150108 changed from 16 to 90
Path for 170102150203 changed from 16 to 90
Path for 170102150301 changed from 16 to 90
Path for 170102150302 changed from 16 to 90
Path for 170102150303 changed from 16 to 90
Path for 170102150304 changed from 16 to 90
Path for 170102150305 changed from 16 to 90
Path for 170102150306 changed from 16 to 90
Path for 170102150307 changed from 16 to 90
Path for 170102150308 changed from 16 to 90
Path for 170101010607 changed from 13 to 89
Path for 170101010701 changed from 13 to 89
Path for 170101010702 changed from 13 to 89
Path for 170101010703 changed from 13 to 89
Path for 170101010704 changed from 13 to 89
Path for 170101010705 changed from 13 to 89
Path for 170101010706 changed from 13 to 89
Path for 170101010707 changed from 13 to 89
Path for 170101010803 changed from 13 to 89
Path for 170101010901 changed from 13 to 89
Path for 170101020306 changed from 13 to 89
Path for 170101020405 changed from 13 to 89
Path for 170101030101 changed from 14 to 89
Path for 170101030103 changed from 14 to 89
Path for 170101030104 changed from 14 to 89
Path for 170102131204 changed from 15 to 89
Path for 170102131309 changed from 15 to 89
Path for 170102140103 changed from 15 to 89
Path for 170102140104 changed from 15 to 89
Path for 170102140105 changed from 15 to 89
Path for 170102150309 changed from 15 to 89
Path for 170102150401 changed from 15 to 89
Path for 170102150402 changed from 15 to 89
Path for 170101010708 changed from 12 to 88
Path for 170101010709 changed from 12 to 88
Path for 170101010710 changed from 12 to 88
Path for 170101010801 changed from 12 to 88
Path for 170101010802 changed from 12 to 88
Path for 170101010804 changed from 12 to 88
Path for 170101010902 changed from 12 to 88
Path for 170101011101 changed from 12 to 88
Path for 170101011102 changed from 12 to 88
Path for 170101020406 changed from 12 to 88
Path for 170101030105 changed from 13 to 88
Path for 170101030201 changed from 13 to 88
Path for 170101030202 changed from 13 to 88
Path for 170101030203 changed from 13 to 88
Path for 170101030204 changed from 13 to 88
Path for 170101030205 changed from 13 to 88
Path for 170102131310 changed from 14 to 88
Path for 170102140106 changed from 14 to 88
Path for 170102140201 changed from 14 to 88
Path for 170102140202 changed from 14 to 88
Path for 170102140203 changed from 14 to 88
Path for 170102140204 changed from 14 to 88
Path for 170102140205 changed from 14 to 88
Path for 170102150403 changed from 14 to 88
Path for 170102150501 changed from 14 to 88
Path for 170102150701 changed from 14 to 88
Path for 170101010711 changed from 11 to 87
Path for 170101010805 changed from 11 to 87
Path for 170101010903 changed from 11 to 87
Path for 170101011001 changed from 11 to 87
Path for 170101011002 changed from 11 to 87
Path for 170101011003 changed from 11 to 87
Path for 170101011004 changed from 11 to 87
Path for 170101011103 changed from 11 to 87
Path for 170101011104 changed from 11 to 87
Path for 170101011202 changed from 11 to 87
Path for 170101011203 changed from 11 to 87
Path for 170101030206 changed from 12 to 87
Path for 170101030301 changed from 12 to 87
Path for 170101030303 changed from 12 to 87
Path for 170102140206 changed from 13 to 87
Path for 170102140301 changed from 13 to 87
Path for 170102140303 changed from 13 to 87
Path for 170102150502 changed from 13 to 87
Path for 170102150702 changed from 13 to 87
Path for 170101011005 changed from 10 to 86
Path for 170101011105 changed from 10 to 86
Path for 170101011201 changed from 10 to 86
Path for 170101011204 changed from 10 to 86
Path for 170101011205 changed from 10 to 86
Path for 170101011206 changed from 10 to 86
Path for 170101030302 changed from 11 to 86
Path for 170101030304 changed from 11 to 86
Path for 170101040101 changed from 10 to 86
Path for 170102140302 changed from 12 to 86
Path for 170102140304 changed from 12 to 86
Path for 170102140402 changed from 12 to 86
Path for 170102150601 changed from 12 to 86
Path for 170102150602 changed from 12 to 86
Path for 170102150703 changed from 12 to 86
Path for 170101011207 changed from 9 to 85
Path for 170101030305 changed from 10 to 85
Path for 170101040102 changed from 9 to 85
Path for 170101040201 changed from 9 to 85
Path for 170101050203 changed from 9 to 85
Path for 170101050301 changed from 9 to 85
Path for 170102140305 changed from 11 to 85
Path for 170102140403 changed from 11 to 85
Path for 170102150603 changed from 11 to 85
Path for 170102150704 changed from 11 to 85
Path for 170101040202 changed from 8 to 84
Path for 170101040203 changed from 8 to 84
Path for 170101050302 changed from 8 to 84
Path for 170101050303 changed from 8 to 84
Path for 170101050304 changed from 8 to 84
Path for 170102140404 changed from 10 to 84
Path for 170102150705 changed from 10 to 84
Path for 170101040301 changed from 7 to 83
Path for 170101050305 changed from 7 to 83
Path for 170102140405 changed from 9 to 83
Path for 170101040302 changed from 6 to 82
Path for 170101040401 changed from 6 to 82
Path for 170101040402 changed from 6 to 82
Path for 170102160101 changed from 7 to 82
Path for 170102160102 changed from 7 to 82
Path for 170102160103 changed from 8 to 82
Path for 170102160104 changed from 8 to 82
Path for 170102160105 changed from 7 to 82
Path for 170102160106 changed from 7 to 82
Path for 170102160108 changed from 7 to 82
Path for 170101040303 changed from 5 to 81
Path for 170101040403 changed from 5 to 81
Path for 170101040404 changed from 5 to 81
Path for 170101040405 changed from 5 to 81
Path for 170102160107 changed from 6 to 81
Path for 170102160109 changed from 6 to 81
Path for 170102160110 changed from 6 to 81
Path for 170101040304 changed from 4 to 80
Path for 170101040406 changed from 4 to 80
Path for 170101040701 changed from 4 to 80
Path for 170101040702 changed from 4 to 80
Path for 170101040704 changed from 3 to 80
Path for 170102160111 changed from 5 to 80
Path for 170102160202 changed from 5 to 80
Path for 170101040703 changed from 3 to 79
Path for 170102160201 changed from 4 to 79
Path for 170102160203 changed from 4 to 79
Path for 170102160204 changed from 4 to 79
Path for 170101040501 changed from 2 to 78
Path for 170101040502 changed from 2 to 78
Path for 170101040705 changed from 2 to 78
Path for 170101040706 changed from 2 to 78
Path for 170101040707 changed from 2 to 78
Path for 170102160205 changed from 3 to 78
Path for 170102160206 changed from 3 to 78
Path for 170102160303 changed from 3 to 78
Path for 170101040503 changed from 1 to 77
Path for 170101040601 changed from 1 to 77
Path for 170101040708 changed from 1 to 77
Path for 170101040709 changed from 1 to 77
Path for 170101040710 changed from 1 to 77
Path for 170102160207 changed from 2 to 77
Path for 170102160301 changed from 2 to 77
Path for 170102160304 changed from 2 to 77
Path for 170200020101 changed from 89 to 77
Path for 170200020102 changed from 89 to 77
Path for 170101040603 changed from 0 to 76
Path for 170101040711 changed from 0 to 76
Path for 170102160302 changed from 1 to 76
Path for 170102160305 changed from 1 to 76
Path for 170102160306 changed from 1 to 76
Path for 170102160309 changed from 0 to 76
Path for 170102160310 changed from 0 to 76
Path for 170200070102 changed from 1 to 58
Path for 170200070103 changed from 1 to 58
Path for 170200070104 changed from 1 to 58
Path for 170200070105 changed from 1 to 58
Path for 170200070202 changed from 0 to 58
Path for 170200060103 changed from 0 to 57
Path for 170200140101 changed from 7 to 49
Path for 170200140102 changed from 6 to 48
Path for 170200140103 changed from 6 to 48
Path for 170200140104 changed from 6 to 48
Path for 170200140105 changed from 5 to 47
Path for 170200140106 changed from 5 to 47
Path for 170200140107 changed from 4 to 46
Path for 170200140108 changed from 3 to 45
Path for 170200150601 changed from 1 to 43
Path for 170200150602 changed from 0 to 43
Path for 170200150505 changed from 0 to 42
Path for 170900040201 changed from 0 to 29
Path for 171100050301 changed from 19 to 0
Path for 171100050302 changed from 18 to 0
